this is my project – STA 9750 2024 Submission Material
…
most_upt <- USAGE_AND_FINANCIALS %>%
    group_by(Agency, Mode) %>%
    summarize(Total_UPT = sum(UPT, na.rm = TRUE)) %>%
    arrange(desc(Total_UPT)) %>%
    slice(1)

`summarise()` has grouped output by 'Agency'. You can override using the
`.groups` argument.

print(most_upt)

# A tibble: 31 × 3
# Groups:   Agency [31]
   Agency                                             Mode  Total_UPT
   <chr>                                              <chr>     <dbl>
 1 Alameda-Contra Costa Transit District              RB      3756519
 2 Alaska Railroad Corporation                        AR       219757
 3 Cambria County Transit Authority                   IP            0
 4 Capital Metropolitan Transportation Authority      YR       466971
 5 Central Florida Regional Transportation Authority  RB       391742
 6 Chattanooga Area Regional Transportation Authority IP       481957
 7 City and County of San Francisco                   TB     33574391
 8 City of Albuquerque                                RB      1829848
 9 City of Fort Collins                               RB       403214
10 City of Portland                                   TR       687131
# ℹ 21 more rows

lowest_expenses_per_upt <- USAGE_AND_FINANCIALS %>%
    group_by(Agency, Mode) %>%
    summarize(Expenses_Per_UPT = sum(Expenses, na.rm = TRUE) / sum(UPT, na.rm = TRUE)) %>%
    arrange(Expenses_Per_UPT) %>%
    slice(1)

`summarise()` has grouped output by 'Agency'. You can override using the
`.groups` argument.

print(lowest_expenses_per_upt)

# A tibble: 31 × 3
# Groups:   Agency [31]
   Agency                                             Mode  Expenses_Per_UPT
   <chr>                                              <chr>            <dbl>
 1 Alameda-Contra Costa Transit District              RB                4.96
 2 Alaska Railroad Corporation                        AR              258.  
 3 Cambria County Transit Authority                   IP              Inf   
 4 Capital Metropolitan Transportation Authority      YR               68.2 
 5 Central Florida Regional Transportation Authority  RB                8.81
 6 Chattanooga Area Regional Transportation Authority IP                4.75
 7 City and County of San Francisco                   TB                5.42
 8 City of Albuquerque                                RB                3.57
 9 City of Fort Collins                               RB                5.66
10 City of Portland                                   TR                4.61
# ℹ 21 more rows

lowest_expenses_per_vrm <- USAGE_AND_FINANCIALS %>%
    group_by(Agency, Mode) %>%
    summarize(Expenses_Per_VRM = sum(Expenses, na.rm = TRUE) / sum(VRM, na.rm = TRUE)) %>%
    arrange(Expenses_Per_VRM) %>%
    slice(1)

`summarise()` has grouped output by 'Agency'. You can override using the
`.groups` argument.

print(lowest_expenses_per_vrm)

# A tibble: 31 × 3
# Groups:   Agency [31]
   Agency                                             Mode  Expenses_Per_VRM
   <chr>                                              <chr>            <dbl>
 1 Alameda-Contra Costa Transit District              RB               28.8 
 2 Alaska Railroad Corporation                        AR               50.0 
 3 Cambria County Transit Authority                   IP              Inf   
 4 Capital Metropolitan Transportation Authority      YR               47.7 
 5 Central Florida Regional Transportation Authority  RB               19.8 
 6 Chattanooga Area Regional Transportation Authority IP              114.  
 7 City and County of San Francisco                   TB               42.3 
 8 City of Albuquerque                                RB                8.25
 9 City of Fort Collins                               RB               15.6 
10 City of Portland                                   TR              166.  
# ℹ 21 more rows
