This Is My Mini Project #2 – STA 9750 2024 Submission Material
…
# Calculate the difference in success between early and recent periods
success_by_genre_period <- success_by_genre_period |>
    mutate(change_in_success = `Recent Decades` - `Early Decades`) |>
    arrange(change_in_success)

# Genres that have fallen out of favor (negative change in success)
fallen_genres <- success_by_genre_period |>
    filter(change_in_success < 0)

# View genres that have fallen out of favor
fallen_genres

# A tibble: 28 × 4
   genres    `Early Decades` `Recent Decades` change_in_success
   <chr>               <int>            <int>             <int>
 1 Drama                9236             1190             -8046
 2 Comedy               5956              612             -5344
 3 Romance              2894              266             -2628
 4 Crime                2886              386             -2500
 5 Action               2642              470             -2172
 6 Adventure            2164              296             -1868
 7 Thriller             1451              275             -1176
 8 Mystery              1238              212             -1026
 9 Family               1006               71              -935
10 Animation            1069              147              -922
# ℹ 18 more rows
…
